<?xml version="1.0" encoding="UTF-8"?><svg xmlns="http://www.w3.org/2000/svg" xmlns:xlink="http://www.w3.org/1999/xlink" fill-rule="evenodd" height="0.5138888888888888in" preserveAspectRatio="none" stroke-linecap="round" viewBox="0 0 678 309" width="1.1284722222222223in">
<style type="text/css">
.brush0 { fill: rgb(255,255,255); }
.pen0 { stroke: rgb(0,0,0); stroke-width: 1; stroke-linejoin: round; }
.brush1 { fill: rgb(0,0,0); }
.pen1 { stroke: rgb(0,0,0); stroke-width: 19; stroke-linejoin: round; }
.brush2 { fill: none; }
</style>
<g>
<polyline class="pen1" fill="none" points="532.0,-150.0 620.0,0.0 532.0,150.0 "/>
<polyline class="pen1 brush1" points="0.0,0.0 100.0,0.0 "/>
<polyline class="pen1 brush1" points="140.0,0.0 240.0,0.0 "/>
<polyline class="pen1 brush1" points="280.0,0.0 380.0,0.0 "/>
<polyline class="pen1 brush1" points="420.0,0.0 520.0,0.0 "/>
<polyline class="pen1 brush1" points="560.0,0.0 620.0,0.0 "/>
<polyline class="pen1" fill="none" points="565.0,-150.0 602.0,-90.0 "/>
<polyline class="pen1" fill="none" points="620.0,-65.0 655.0,0.0 620.0,60.0 "/>
<polyline class="pen1" fill="none" points="602.0,90.0 565.0,150.0 "/>
</g>
<g/>
</svg>