<?xml version="1.0" encoding="UTF-8"?><svg xmlns="http://www.w3.org/2000/svg" xmlns:xlink="http://www.w3.org/1999/xlink" fill-rule="evenodd" height="0.5555555555555556in" preserveAspectRatio="none" stroke-linecap="round" viewBox="0 0 716 334" width="1.1909722222222223in">
<style type="text/css">
.brush0 { fill: rgb(255,255,255); }
.pen0 { stroke: rgb(0,0,0); stroke-width: 1; stroke-linejoin: round; }
.pen1 { stroke: rgb(0,0,0); stroke-width: 19; stroke-linejoin: round; }
.brush1 { fill: none; }
.brush2 { fill: rgb(0,0,0); }
</style>
<g>
<polyline class="pen1 brush1" points="620.0,0.0 550.0,-150.0 620.0,-150.0 689.0,0.0 620.0,150.0 550.0,150.0 620.0,0.0 "/>
<polyline class="pen1 brush1" points="0.0,0.0 100.0,0.0 "/>
<polyline class="pen1 brush1" points="140.0,0.0 240.0,0.0 "/>
<polyline class="pen1 brush1" points="280.0,0.0 380.0,0.0 "/>
<polyline class="pen1 brush1" points="420.0,0.0 520.0,0.0 "/>
<polyline class="pen1 brush1" points="560.0,0.0 620.0,0.0 "/>
</g>
<g/>
</svg>