<?xml version="1.0" encoding="UTF-8"?><svg xmlns="http://www.w3.org/2000/svg" xmlns:xlink="http://www.w3.org/1999/xlink" fill-rule="evenodd" height="0.3784722222222222in" preserveAspectRatio="none" stroke-linecap="round" viewBox="0 0 153 228" width="0.2534722222222222in">
<style type="text/css">
.brush0 { fill: rgb(255,255,255); }
.pen0 { stroke: rgb(0,0,0); stroke-width: 1; stroke-linejoin: round; }
.pen1 { stroke: rgb(0,0,0); stroke-width: 19; stroke-linejoin: round; }
.brush1 { fill: none; }
</style>
<g>
<polyline class="pen1" fill="none" points="4.0,-97.5 132.0,2.5 4.0,103.5 "/>
</g>
<g/>
</svg>