<?xml version="1.0" encoding="UTF-8" standalone="no"?>
<!DOCTYPE svg PUBLIC "-//W3C//DTD SVG 1.0//EN" "http://www.w3.org/TR/2001/REC-SVG-20010904/DTD/svg10.dtd">
<svg xmlns="http://www.w3.org/2000/svg" xmlns:xlink="http://www.w3.org/1999/xlink" fill-rule="evenodd" height="0.7118055555555556in" preserveAspectRatio="none" stroke-linecap="round" viewBox="0 0 100 50" width="0.8680555555555556in">
<style type="text/css">
.brush0 { fill: rgb(255,255,255); }
.pen0 { stroke: rgb(0,0,0); stroke-width: 1; stroke-linejoin: round; }
.pen1 { stroke: rgb(0,0,0); stroke-width: 19; stroke-linejoin: round; }
.brush1 { fill: none; }
</style>
<g>
<polyline class="pen1" fill="none" points="0,0 40,0 50,30 60,0 100,0 110,30 120,0 160,0"/>
</g>
<g/>
</svg>
